<?xml version="1.0" encoding="UTF-8"?>
<svg width="48px" height="41px" viewBox="0 0 48 41" version="1.1" xmlns="http://www.w3.org/2000/svg" xmlns:xlink="http://www.w3.org/1999/xlink">
    <title>calendar</title>
    <g id="calendar" stroke="none" stroke-width="1" fill="none" fill-rule="evenodd">
        <g transform="translate(0.000000, -0.000000)" fill="#007377" id="Fill-1">
            <path d="M2.18181818,13.6599818 L45.8181818,13.6599818 L45.8181818,37.1145273 C45.8181818,37.7379818 45.3507273,38.2054364 44.7272727,38.2054364 L3.27272727,38.2054364 C2.64927273,38.2054364 2.18181818,37.7379818 2.18181818,37.1145273 L2.18181818,13.6599818 Z M9.15327273,0.00670909091 C8.59145455,0.0683454545 8.16981818,0.549436364 8.18181818,1.11452727 L8.18181818,4.38725455 L3.27272727,4.38725455 C1.47818182,4.38725455 0,5.86543636 0,7.65998182 L0,37.1145273 C0,38.9085273 1.47818182,40.3872545 3.27272727,40.3872545 L44.7272727,40.3872545 C46.5212727,40.3872545 48,38.9085273 48,37.1145273 L48,7.65998182 C48,5.86543636 46.5212727,4.38725455 44.7272727,4.38725455 L39.8181818,4.38725455 L39.8181818,1.11452727 C39.8307273,0.512345455 39.3529091,0.0132545455 38.7507273,-0.000109090909 C38.7032727,-0.000927272727 38.6552727,0.00125454545 38.6078182,0.00670909091 C38.046,0.0683454545 37.6243636,0.549436364 37.6363636,1.11452727 L37.6363636,4.38725455 L13.6363636,4.38725455 C13.0341818,4.37852727 12.5383636,4.86016364 12.5301818,5.46289091 C12.5214545,6.06507273 13.0030909,6.56034545 13.6052727,6.56907273 C13.6156364,6.56907273 13.626,6.56907273 13.6363636,6.56907273 L37.6363636,6.56907273 L37.6363636,8.75089091 C37.6276364,9.35307273 38.1092727,9.84889091 38.712,9.85707273 C39.3141818,9.8658 39.8094545,9.38416364 39.8181818,8.78198182 L39.8181818,8.75089091 L39.8181818,6.56907273 L44.7272727,6.56907273 C45.3507273,6.56907273 45.8181818,7.03652727 45.8181818,7.65998182 L45.8181818,11.4781636 L2.18181818,11.4781636 L2.18181818,7.65998182 C2.18181818,7.03652727 2.64927273,6.56907273 3.27272727,6.56907273 L8.18181818,6.56907273 L8.18181818,8.75089091 C8.17309091,9.35307273 8.65472727,9.84889091 9.25745455,9.85707273 C9.85963636,9.8658 10.3549091,9.38416364 10.3636364,8.78198182 C10.3636364,8.77161818 10.3636364,8.76125455 10.3636364,8.75089091 L10.3636364,1.11452727 C10.3767273,0.512345455 9.89890909,0.0132545455 9.29618182,-0.000109090909 C9.24872727,-0.000927272727 9.20072727,0.00125454545 9.15327273,0.00670909091 L9.15327273,0.00670909091 Z"></path>
        </g>
    </g>
</svg>