<?xml version="1.0" encoding="UTF-8"?>
<svg width="10px" height="17px" viewBox="0 0 10 17" version="1.1" xmlns="http://www.w3.org/2000/svg" xmlns:xlink="http://www.w3.org/1999/xlink">
    <title>pager_arrow_right</title>
    <g id="pager_arrow_right" stroke="none" stroke-width="1" fill="none" fill-rule="evenodd">
        <g id="Group" transform="translate(4.500000, 9.000000) scale(-1, 1) translate(-4.500000, -9.000000) translate(0.000000, 1.000000)" stroke="#4A4A4A" stroke-width="1.5">
            <polyline id="Stroke-1" transform="translate(4.600000, 7.550000) rotate(-270.000000) translate(-4.600000, -7.550000) " points="-2.9 3.8 4.6 11.3 12.1 3.8"></polyline>
        </g>
    </g>
</svg>