<svg xmlns="http://www.w3.org/2000/svg" width="285" height="76" viewBox="0 0 285 76">
    <g fill="none" fill-rule="evenodd">
        <g fill="#FFF">
            <g>
                <g>
                    <g>
                        <path d="M5.261 67.512c.73 0 1.338-.243 1.763-.67.426-.424.67-1.154.67-2.126 0-.791-.184-1.338-.609-1.703-.426-.364-1.034-.486-1.824-.486-.304 0-.608 0-.912.06h-.425v4.864c.243.06.73.06 1.337.06M2.465 62.71l-1.095-.182v-.67h1.824c.304 0 .67 0 .973-.06.486-.06.973-.06 1.398-.06 1.337 0 2.25.243 2.796.729.547.487.851 1.216.851 2.189 0 .729-.182 1.337-.486 1.884-.365.547-.79.973-1.398 1.216-.608.304-1.277.426-2.067.426h-.79c-.304 0-.426 0-.486-.061v3.039l1.884.122v.669H1.37v-.67l1.155-.121c-.06.06-.06-8.45-.06-8.45M10.854 61.858L9.7 61.736v-.607l2.248-.244.304.183v3.16l-.06 1.156c.303-.243.668-.486 1.216-.73.487-.243 1.034-.364 1.52-.364.546 0 1.032.12 1.337.304.303.243.546.547.668 1.033.122.426.183 1.034.183 1.824v3.83l.973.12v.67h-3.283v-.67l.912-.12v-3.83c0-.547-.062-.973-.121-1.277-.061-.304-.183-.547-.426-.668-.182-.122-.486-.244-.912-.244-.305 0-.668.06-1.034.244-.364.182-.73.364-.973.547v5.167l.973.12v.67h-3.221v-.67l.85-.12v-9.362zM20.034 62.831c-.122-.182-.243-.365-.243-.608 0-.304.06-.547.243-.729.182-.183.425-.304.729-.304s.548.06.669.243c.122.182.243.364.243.608 0 .304-.06.547-.243.729-.182.183-.425.243-.73.243-.303.061-.486 0-.668-.182zm.12 2.675l-1.032-.243v-.73l2.128-.243.304.243v6.748l1.094.122v.668H19v-.668l1.095-.122v-5.775h.06zM24.593 61.858L23.438 61.676 23.438 61.068 25.687 60.825 25.991 61.068 25.991 71.281 27.146 71.402 27.146 72.071 23.438 72.071 23.438 71.402 24.593 71.281zM31.767 71.038c.304-.122.608-.304.85-.547V68.12c-.971 0-1.762.182-2.248.486-.487.304-.791.73-.791 1.216 0 .487.122.85.365 1.094.243.244.547.365.973.365.243 0 .547-.061.85-.243m-2.431-2.918c.85-.426 1.946-.608 3.283-.67v-.363c0-.426-.061-.791-.121-1.034-.122-.243-.243-.425-.487-.547-.243-.122-.547-.182-.972-.182-.487 0-.912.06-1.277.182-.365.122-.73.304-1.094.486l-.365-.73c.12-.121.365-.242.669-.425.303-.182.668-.304 1.094-.425.425-.122.85-.183 1.277-.183.668 0 1.155.06 1.519.244.365.182.669.486.79.85.183.365.244.913.244 1.58v4.378h.79v.608c-.182.06-.425.122-.67.122-.303.06-.546.06-.728.06-.243 0-.426-.06-.547-.121-.122-.061-.122-.243-.122-.486v-.426c-.304.243-.608.547-1.033.729-.426.244-.851.365-1.338.365-.67 0-1.216-.182-1.641-.547-.426-.365-.67-.912-.67-1.641.123-.791.548-1.46 1.399-1.824M36.508 65.506l-.973-.243v-.73l1.945-.243h.061l.304.243V65.445c.304-.304.791-.547 1.277-.79.547-.243 1.033-.365 1.52-.365.547 0 1.033.122 1.337.304.304.243.547.547.67 1.034.12.425.181 1.033.181 1.823v3.83l.973.122v.668h-3.222v-.668l.851-.122v-3.83c0-.547-.06-.972-.122-1.276-.06-.304-.182-.547-.425-.67-.182-.121-.486-.242-.85-.242-.305 0-.67.06-1.035.243-.364.182-.729.365-.972.547v5.167l.912.122v.669h-3.222v-.67l.851-.121c-.06.06-.06-5.714-.06-5.714M45.87 71.828c-.243-.243-.365-.669-.365-1.216v-5.289h-.973v-.608c.061 0 .183-.06.365-.12.183-.062.365-.123.426-.123.121-.06.243-.243.364-.486.061-.182.183-.426.244-.85.121-.366.182-.609.182-.67h.79v2.006h2.311v.912h-2.31v4.195c0 .547 0 .912.06 1.094.061.182.122.365.183.426.121.06.304.121.547.121.243 0 .547-.06.79-.12.304-.062.547-.123.67-.184l.181.608c-.243.182-.547.304-1.033.486-.487.183-.912.244-1.338.244-.425-.06-.79-.183-1.094-.426M50.977 61.858l-1.155-.122v-.607l2.249-.244.304.183v3.16l-.06 1.156c.303-.243.668-.486 1.215-.73.487-.243 1.034-.364 1.52-.364.547 0 1.033.12 1.337.304.304.243.547.547.669 1.033.122.426.182 1.034.182 1.824v3.83l.973.12v.67h-3.283v-.67l.912-.12v-3.83c0-.547-.061-.973-.121-1.277-.061-.304-.183-.547-.426-.668-.182-.122-.486-.244-.912-.244-.304 0-.668.06-1.033.244-.365.182-.73.364-.973.547v5.167l.973.12v.67h-3.222v-.67l.85-.12v-9.362zM59.244 71.402l1.033-.06v-5.776l-.972-.243v-.73l1.884-.243.304.243v.244l-.06 1.094h.06c.122-.183.243-.365.487-.608.243-.243.547-.486.911-.669.365-.182.791-.304 1.216-.304.183 0 .304 0 .426.061v1.52c-.06-.06-.183-.06-.304-.122-.122-.06-.304-.06-.486-.06-.73 0-1.459.243-2.128.73v4.923l1.763.122v.668h-4.195c.061-.12.061-.79.061-.79M70.43 70.673c.365-.547.486-1.277.486-2.31 0-1.034-.182-1.824-.486-2.432-.304-.608-.79-.912-1.52-.912-.608 0-1.094.244-1.46.79-.364.548-.485 1.277-.485 2.31 0 1.034.182 1.825.486 2.432.304.608.79.912 1.52.912.608-.061 1.094-.304 1.459-.79m-4.5-4.56c.366-.607.792-1.033 1.339-1.398.547-.304 1.155-.486 1.763-.486 1.155 0 2.006.365 2.614 1.094.608.73.85 1.703.85 2.858 0 .85-.181 1.519-.485 2.127-.365.608-.791 1.034-1.338 1.398-.547.304-1.155.487-1.763.487-1.155 0-2.006-.365-2.614-1.094-.608-.73-.851-1.703-.851-2.858-.061-.851.122-1.52.486-2.127M76.57 65.445c-.304.122-.547.304-.73.486v5.168c.06.12.244.182.487.304.243.06.547.12.85.12.73 0 1.278-.303 1.703-.85.426-.547.669-1.398.669-2.492 0-.973-.183-1.703-.547-2.19-.365-.485-.851-.728-1.46-.728-.364-.061-.668 0-.972.182m4.012 4.68c-.304.67-.79 1.156-1.398 1.52-.608.365-1.277.548-2.067.548-.243 0-.486 0-.73-.061-.243-.061-.486-.061-.607-.122l.06 1.155v1.399l1.399.12v.67h-3.83v-.67l.973-.12v-9.058l-.973-.243v-.73l1.945-.243.304.243v.79c.304-.304.608-.547 1.034-.79.425-.182.85-.304 1.337-.304.547 0 1.033.122 1.459.426.426.243.79.668 1.094 1.216.304.547.426 1.276.426 2.127.06.79-.122 1.459-.426 2.128M82.831 75.415c-.122 0-.243-.062-.304-.062v-1.215c.061.06.182.06.304.06h.486c.426 0 .851-.181 1.155-.485.304-.304.67-.912.973-1.763h-.669l-2.614-6.81-.608-.181v-.67h3.283v.67l-1.033.181 1.337 4.013.608 2.006.608-2.007 1.216-4.011-.912-.183v-.668h2.735v.668l-.668.183c-1.338 4.133-2.128 6.444-2.37 6.99-.305.791-.609 1.398-.852 1.825-.243.425-.547.79-.912 1.032-.365.245-.79.365-1.277.365-.182.123-.304.123-.486.062M94.26 65.384h-1.277v-.608l1.277-.243v-.67c0-.546.122-1.093.426-1.58.303-.486.668-.85 1.155-1.154.486-.304.972-.426 1.52-.426.303 0 .607.06.79.122v1.398c-.06-.061-.244-.122-.487-.183-.243-.06-.486-.121-.79-.121-.426 0-.729.12-.912.365-.182.243-.304.608-.304 1.155v1.094h1.885v.912h-1.885v5.897l1.52.12v.67h-4.134v-.67l1.155-.12v-5.958h.061zM103.561 70.673c.365-.547.486-1.277.486-2.31 0-1.034-.182-1.824-.486-2.432-.304-.608-.79-.912-1.52-.912-.608 0-1.094.244-1.459.79-.365.548-.486 1.277-.486 2.31 0 1.034.182 1.825.486 2.432.304.608.791.912 1.52.912.669-.061 1.094-.304 1.459-.79m-4.499-4.56c.365-.607.791-1.033 1.338-1.398.547-.364 1.155-.486 1.763-.486 1.155 0 2.006.365 2.614 1.094.608.73.851 1.703.851 2.858 0 .85-.182 1.519-.486 2.127-.365.608-.791 1.034-1.338 1.398-.547.304-1.155.487-1.763.487-1.155 0-2.006-.365-2.614-1.094-.608-.73-.851-1.703-.851-2.858 0-.851.182-1.52.486-2.127M106.844 71.402l1.033-.06v-5.776l-.972-.243v-.73l1.884-.243.304.243v.244l-.061 1.094h.06c.123-.183.244-.365.488-.608.243-.243.547-.486.91-.669.366-.182.792-.304 1.217-.304.183 0 .304 0 .426.061v1.52c-.061-.06-.183-.06-.304-.122-.122-.06-.304-.06-.486-.06-.73 0-1.46.243-2.128.73v4.923l1.763.122v.668h-4.195c.06-.12.06-.79.06-.79M119.063 71.038c.304-.122.608-.304.851-.547V68.12c-.973 0-1.763.182-2.249.486-.487.304-.73.73-.73 1.216 0 .487.122.85.365 1.094.243.244.547.365.973.365.243 0 .486-.061.79-.243m-2.371-2.918c.851-.426 1.945-.608 3.283-.67v-.363c0-.426-.061-.791-.122-1.034-.121-.243-.243-.425-.486-.547-.243-.122-.547-.182-.973-.182-.486 0-.912.06-1.276.182-.365.122-.73.304-1.095.486l-.364-.73c.121-.121.364-.242.668-.425.304-.182.669-.304 1.095-.425.425-.122.851-.183 1.276-.183.669 0 1.155.06 1.52.244.365.182.669.486.79.85.183.365.243.913.243 1.58v4.378h.791v.608c-.183.06-.426.122-.669.122-.304.06-.547.06-.729.06-.244 0-.426-.06-.548-.121-.121-.061-.121-.243-.121-.486v-.426c-.304.243-.608.547-1.034.729-.425.244-.851.365-1.337.365-.669 0-1.216-.182-1.641-.547-.426-.365-.669-.912-.669-1.641.122-.791.547-1.46 1.398-1.824M123.805 65.506l-.973-.243v-.73l1.946-.243h.06l.304.243V65.445c.304-.304.79-.547 1.277-.79.547-.243 1.033-.365 1.52-.365.547 0 1.033.122 1.337.304.304.243.547.547.669 1.034.122.425.182 1.033.182 1.823v3.83l.973.122v.668h-3.222v-.668l.85-.122v-3.83c0-.547-.06-.972-.12-1.276-.061-.304-.183-.547-.426-.67-.182-.121-.486-.242-.851-.242-.304 0-.67.06-1.034.243-.364.182-.73.365-.972.547v5.167l.912.122v.669h-3.222v-.67l.85-.121v-5.714h-.06zM136.632 62.709L135.355 62.587 135.355 61.858 139.368 61.858 139.368 62.587 138.091 62.709 138.091 71.22 139.368 71.402 139.368 72.071 135.355 72.071 135.355 71.402 136.632 71.22zM141.495 65.506l-.973-.243v-.73l1.946-.243h.06l.304.243V65.445c.304-.304.791-.547 1.277-.79.547-.243 1.033-.365 1.52-.365.547 0 1.033.122 1.337.304.304.243.547.547.67 1.034.121.425.181 1.033.181 1.823v3.83l.973.122v.668h-3.222v-.668l.851-.122v-3.83c0-.547-.06-.972-.12-1.276-.062-.304-.184-.547-.427-.67-.182-.121-.486-.242-.85-.242-.305 0-.67.06-1.035.243-.364.182-.729.365-.972.547v5.167l.912.122v.669h-3.283v-.67l.851-.121v-5.714zM150.857 71.828c-.243-.243-.365-.669-.365-1.216v-5.289h-.972v-.608c.06 0 .182-.06.364-.12.183-.062.365-.123.426-.123.12-.06.243-.243.365-.486.06-.182.182-.426.243-.85.12-.366.182-.609.182-.67h.79v2.006h2.31v.912h-2.31v4.195c0 .547 0 .912.06 1.094.062.182.123.365.184.426.12.06.304.121.547.121.243 0 .547-.06.79-.12.304-.062.547-.123.669-.184l.182.608c-.243.182-.547.304-1.033.486-.487.183-.912.244-1.338.244-.425-.06-.79-.183-1.094-.426M159.976 67.512c0-.182.06-.365.06-.608 0-.608-.121-1.033-.364-1.398s-.608-.486-1.155-.486-.973.182-1.277.607c-.304.365-.486 1.034-.547 1.946l3.283-.061zm-3.891 3.587c-.608-.73-.851-1.702-.851-2.918 0-.791.122-1.52.426-2.067.304-.608.729-1.094 1.276-1.398.548-.304 1.155-.487 1.885-.487.85 0 1.52.243 2.006.73.486.486.73 1.155.73 2.006 0 .547-.061.973-.122 1.276h-4.742c0 .912.243 1.642.608 2.189.426.547.973.85 1.702.85.365 0 .73-.06 1.155-.181.426-.122.73-.304.912-.487l.243.608c-.243.243-.668.487-1.155.73-.486.243-1.033.304-1.58.304-1.094-.061-1.946-.426-2.493-1.155zM162.65 71.402l1.033-.06v-5.776l-.972-.243v-.73l1.884-.243.304.243v.244l-.06 1.094h.06c.122-.183.243-.365.487-.608.243-.243.547-.486.911-.669.365-.182.791-.304 1.216-.304.183 0 .304 0 .426.061v1.52c-.06-.06-.183-.06-.304-.122-.122-.06-.304-.06-.486-.06-.73 0-1.459.243-2.128.73v4.923l1.763.122v.668h-4.195l.061-.79zM173.29 70.977c.303-.183.546-.365.728-.547v-5.047c-.06-.12-.243-.181-.486-.302-.243-.063-.547-.123-.85-.123-.73 0-1.278.243-1.703.79-.426.547-.608 1.398-.608 2.492 0 .974.182 1.704.547 2.19.365.485.851.728 1.46.728.303.061.607 0 .911-.181m-3.04.85c-.425-.303-.79-.668-1.094-1.276-.304-.608-.425-1.276-.425-2.127 0-.792.182-1.46.486-2.129s.79-1.154 1.398-1.52c.608-.363 1.277-.547 2.128-.547.486 0 .912.062 1.276.123v-2.554l-1.398-.182v-.608l2.493-.243h.06l.304.242v10.335h.791v.609c-.304.06-.547.12-.73.12-.182 0-.425.062-.668.062-.244 0-.426-.062-.487-.123-.12-.06-.12-.243-.12-.546v-.424c-.245.302-.609.546-1.035.788-.425.183-.85.305-1.337.305-.669.06-1.155-.062-1.642-.305M182.043 67.512c0-.182.061-.365.061-.608 0-.608-.122-1.033-.365-1.398s-.608-.486-1.155-.486-.973.182-1.277.607c-.304.365-.486 1.034-.547 1.946l3.283-.061zm-3.951 3.587c-.608-.73-.852-1.702-.852-2.918 0-.791.122-1.52.426-2.067.304-.608.73-1.094 1.277-1.398.547-.304 1.155-.487 1.884-.487.851 0 1.52.243 2.006.73.487.486.73 1.155.73 2.006 0 .547-.061.973-.122 1.276h-4.742c0 .912.244 1.642.608 2.189.426.547.973.85 1.703.85.364 0 .729-.06 1.155-.181.425-.122.729-.304.911-.487l.244.608c-.244.243-.669.487-1.155.73-.548.182-1.034.304-1.581.304-1.094-.061-1.885-.426-2.492-1.155zM187.514 65.445c-.304.122-.547.304-.729.486v5.168c.06.12.243.182.486.304.243.06.547.12.851.12.73 0 1.277-.303 1.702-.85.426-.547.67-1.398.67-2.492 0-.973-.184-1.703-.548-2.19-.365-.485-.85-.728-1.459-.728-.365-.061-.669 0-.973.182m4.073 4.68c-.304.67-.79 1.156-1.398 1.52-.608.365-1.277.548-2.067.548-.243 0-.426 0-.73-.061-.243-.061-.486-.061-.607-.122l.06 1.155v1.399l1.4.12v.67h-3.83v-.67l.971-.12v-9.058l-.972-.243v-.73l1.945-.243.304.243v.79c.304-.304.608-.547 1.033-.79.426-.182.851-.304 1.338-.304.547 0 1.033.122 1.46.426.424.243.79.668 1.093 1.216.243.547.426 1.276.426 2.127.06.79-.122 1.459-.426 2.128M197.91 67.512c0-.182.06-.365.06-.608 0-.608-.122-1.033-.365-1.398s-.608-.486-1.155-.486-.973.182-1.277.607c-.304.365-.486 1.034-.547 1.946l3.283-.061zm-3.892 3.587c-.608-.73-.85-1.702-.85-2.918 0-.791.121-1.52.425-2.067.304-.608.73-1.094 1.276-1.398.548-.304 1.155-.487 1.885-.487.851 0 1.52.243 2.006.73.486.486.73 1.155.73 2.006 0 .547-.06.973-.122 1.276h-4.742c0 .912.243 1.642.608 2.189.426.547.973.85 1.702.85.365 0 .73-.06 1.155-.181.426-.122.73-.304.912-.487l.243.608c-.243.243-.668.487-1.155.73-.547.182-1.033.304-1.58.304-1.094-.061-1.946-.426-2.493-1.155zM201.375 65.506l-.974-.243v-.73l1.946-.243h.06l.304.243V65.445c.304-.304.791-.547 1.277-.79.548-.243 1.034-.365 1.52-.365.547 0 1.034.122 1.337.304.304.243.548.547.67 1.034.122.425.181 1.033.181 1.823v3.83l.974.122v.668h-3.222v-.668l.85-.122v-3.83c0-.547-.06-.972-.12-1.276-.061-.304-.184-.547-.427-.67-.181-.121-.486-.242-.85-.242-.305 0-.67.06-1.035.243-.364.182-.729.365-.972.547v5.167l.912.122v.669h-3.222v-.67l.851-.121-.06-5.714zM214.08 70.977c.304-.183.547-.365.73-.547v-5.047c-.061-.12-.244-.181-.487-.302-.243-.063-.547-.123-.851-.123-.73 0-1.277.243-1.702.79-.426.547-.608 1.398-.608 2.492 0 .974.182 1.704.547 2.19.365.485.85.728 1.459.728.304.061.608 0 .912-.181m-3.04.85c-.425-.303-.79-.668-1.094-1.276-.243-.547-.425-1.276-.425-2.127 0-.792.182-1.46.486-2.129s.79-1.154 1.398-1.52c.608-.363 1.277-.547 2.128-.547.486 0 .912.062 1.277.123v-2.554l-1.4-.182v-.608l2.494-.243h.06l.305.242v10.335h.79v.609c-.304.06-.547.12-.73.12-.182 0-.425.062-.668.062-.244 0-.426-.062-.487-.123-.121-.06-.121-.243-.121-.546v-.424c-.243.302-.608.546-1.034.788-.425.183-.851.305-1.337.305-.67.06-1.216-.062-1.642-.305M222.773 67.512c0-.182.06-.365.06-.608 0-.608-.121-1.033-.364-1.398s-.608-.486-1.155-.486-.973.182-1.277.607c-.304.365-.486 1.034-.547 1.946l3.283-.061zm-3.891 3.587c-.608-.73-.851-1.702-.851-2.918 0-.791.122-1.52.426-2.067.304-.608.729-1.094 1.276-1.398.548-.304 1.155-.487 1.885-.487.85 0 1.52.243 2.006.73.486.486.73 1.155.73 2.006 0 .547-.061.973-.122 1.276h-4.742c0 .912.243 1.642.608 2.189.426.547.973.85 1.702.85.365 0 .73-.06 1.155-.181.426-.122.73-.304.912-.487l.243.608c-.243.243-.668.487-1.155.73-.547.182-1.033.304-1.58.304-1.094-.061-1.946-.426-2.493-1.155zM226.238 65.506l-.973-.243v-.73l1.946-.243h.06l.304.243V65.445c.304-.304.791-.547 1.277-.79.547-.243 1.033-.365 1.52-.365.547 0 1.033.122 1.337.304.304.243.547.547.67 1.034.121.425.181 1.033.181 1.823v3.83l.973.122v.668h-3.222v-.668l.851-.122v-3.83c0-.547-.06-.972-.12-1.276-.062-.304-.184-.547-.427-.67-.182-.121-.486-.242-.85-.242-.305 0-.67.06-1.035.243-.364.182-.729.365-.972.547v5.167l.912.122v.669h-3.222v-.67l.851-.121-.06-5.714zM235.6 71.828c-.243-.243-.365-.669-.365-1.216v-5.289h-.972v-.608c.06 0 .182-.06.364-.12.183-.062.365-.123.426-.123.121-.06.243-.243.365-.486.06-.182.182-.426.243-.85.121-.366.182-.609.182-.67h.79v2.006h2.311v.912h-2.25v4.195c0 .547 0 .912.061 1.094.061.182.122.365.182.426.061.06.304.121.548.121.243 0 .547-.06.79-.12.243-.062.547-.123.67-.184l.181.608c-.243.182-.547.304-1.034.486-.486.183-.91.244-1.337.244-.486-.06-.85-.183-1.155-.426M242.226 61.858L245.995 61.858 245.995 62.587 244.658 62.709 246.542 69.092 246.969 71.038 247.393 69.092 248.975 63.864 248.609 62.709 247.637 62.587 247.637 61.858 251.466 61.858 251.466 62.587 250.129 62.709 252.014 69.092 252.439 71.159 252.864 69.092 254.567 62.709 253.229 62.587 253.229 61.858 256.451 61.858 256.451 62.587 255.601 62.709 252.864 72.132 251.527 72.132 249.399 65.262 247.393 72.132 246.057 72.132 243.138 62.77 242.226 62.587zM261.74 70.673c.365-.547.486-1.277.486-2.31 0-1.034-.182-1.824-.486-2.432-.304-.608-.79-.912-1.52-.912-.608 0-1.094.244-1.459.79-.365.548-.486 1.277-.486 2.31 0 1.034.182 1.825.486 2.432.304.608.79.912 1.52.912.67-.061 1.155-.304 1.46-.79m-4.5-4.56c.365-.607.791-1.033 1.338-1.398.547-.304 1.155-.486 1.763-.486 1.155 0 2.006.365 2.614 1.094.608.73.851 1.703.851 2.858 0 .85-.182 1.519-.486 2.127-.365.608-.79 1.034-1.338 1.398-.547.304-1.155.487-1.763.487-1.155 0-2.006-.365-2.614-1.094-.608-.73-.85-1.703-.85-2.858 0-.851.181-1.52.485-2.127M265.084 71.402l1.033-.06v-5.776l-.972-.243v-.73l1.883-.243.305.243v.244l-.061 1.094h.061c.122-.183.243-.365.486-.608.244-.243.548-.486.911-.669.366-.182.791-.304 1.217-.304.183 0 .304 0 .426.061v1.52c-.061-.06-.184-.06-.305-.122-.121-.06-.303-.06-.485-.06-.73 0-1.459.243-2.128.73v4.923l1.763.122v.668h-4.196l.062-.79zM272.257 61.858L271.103 61.676 271.103 61.068 273.352 60.825 273.655 61.068 273.655 71.281 274.811 71.402 274.811 72.071 271.103 72.071 271.103 71.402 272.257 71.281zM280.22 70.977c.305-.183.548-.365.73-.547v-5.047c-.06-.12-.243-.181-.486-.302-.243-.063-.547-.123-.85-.123-.73 0-1.278.243-1.703.79-.426.547-.608 1.398-.608 2.492 0 .974.182 1.704.547 2.19.365.485.85.728 1.459.728.305.061.608 0 .912-.181m-3.04.85c-.425-.303-.79-.668-1.094-1.276-.243-.547-.425-1.276-.425-2.127 0-.792.182-1.46.486-2.129s.79-1.154 1.398-1.52c.609-.363 1.278-.547 2.128-.547.486 0 .912.062 1.276.123v-2.554l-1.398-.182v-.608l2.493-.243h.06l.305.242v10.335h.79v.609c-.304.06-.546.12-.73.12-.182 0-.425.062-.668.062-.244 0-.426-.062-.487-.123-.12-.06-.12-.243-.12-.546v-.424c-.245.302-.61.546-1.035.788-.425.183-.851.305-1.336.305-.67.06-1.156-.062-1.643-.305M31.341 36.873c-2.189 1.58-4.742 2.31-7.538 2.31-7.417 0-13.435-6.019-13.435-13.436 0-7.416 6.018-13.434 13.435-13.434 4.194 0 7.72 1.398 10.213 4.437l7.173-6.93c-4.316-4.803-10.395-7.599-17.386-7.599C10.733 2.221.155 12.8.155 25.87s10.577 23.648 23.648 23.648c5.653 0 10.213-1.703 14.164-5.35l19.15-18.42-6.748-6.625-19.028 17.75z" transform="translate(-81 -3974) translate(0 3868) translate(81 106)"/>
                        <path d="M52.861 14.501c2.19-1.702 4.742-2.432 7.538-2.432 7.417 0 13.435 6.02 13.435 13.435 0 7.417-6.018 13.435-13.435 13.435-4.194 0-7.66-1.58-10.09-4.559l-7.296 6.991c4.316 4.863 10.395 7.721 17.386 7.721 13.07 0 23.648-10.578 23.648-23.649 0-13.07-10.578-23.647-23.648-23.647-5.653 0-10.213 1.702-14.164 5.35l-19.149 18.48 6.747 6.748 19.028-17.873zM110.491 11.523c.67-.73.973-1.824.973-3.283 0-1.276-.304-2.25-.973-2.98-.669-.667-1.824-1.032-3.404-1.032-.547 0-1.155.06-1.702.12-.365.062-.608.062-.669.062v8.207h3.161c1.033.06 1.945-.304 2.614-1.094zM99.61 21.432l2.19-.243V4.653l-2.068-.364V3.012h3.465c.486 0 1.155-.061 2.006-.122.912-.06 1.581-.121 2.067-.121 2.614 0 4.438.425 5.532 1.276 1.094.852 1.641 2.189 1.641 3.952 0 1.277-.364 2.432-1.033 3.465-.669 1.034-1.64 1.763-2.857 2.128.547.304 1.094.79 1.58 1.58.487.73 1.095 1.763 1.763 3.04.547.973.973 1.702 1.277 2.189.304.486.547.729.851.79l1.033.243v1.277h-3.647c-.304 0-.608-.304-.973-.912-.364-.608-.85-1.581-1.398-2.797-.608-1.398-1.216-2.492-1.64-3.343-.488-.851-.913-1.338-1.399-1.581h-3.344v7.113l2.614.243v1.277h-7.66v-1.277zM127.817 19.973c.669-1.034.973-2.493.973-4.5 0-1.944-.304-3.525-.912-4.68-.608-1.155-1.581-1.702-2.918-1.702-1.216 0-2.19.487-2.797 1.52-.668 1.033-.972 2.493-.972 4.499 0 1.945.304 3.525.912 4.68.608 1.156 1.58 1.704 2.918 1.704 1.155 0 2.127-.487 2.796-1.521m-8.693-8.754c.669-1.155 1.52-2.067 2.614-2.675 1.094-.608 2.188-.912 3.404-.912 2.249 0 3.89.73 5.046 2.128 1.094 1.399 1.702 3.283 1.702 5.593 0 1.58-.304 2.978-.973 4.134-.668 1.155-1.52 2.067-2.614 2.675-1.094.607-2.188.91-3.404.91-2.25 0-3.891-.728-5.046-2.126-1.094-1.4-1.702-3.283-1.702-5.593-.061-1.581.304-2.98.973-4.134M134.625 11.462c.548-1.155 1.399-2.128 2.554-2.797 1.094-.668 2.493-1.033 4.011-1.033.73 0 1.4.06 1.947.182.547.122 1.215.365 1.945.608l-.121 4.074h-1.704l-.608-2.736c-.12-.487-.79-.73-2.006-.73-1.214 0-2.188.487-2.917 1.52-.73.973-1.095 2.432-1.095 4.256 0 2.066.427 3.647 1.216 4.74.79 1.096 1.825 1.643 3.161 1.643.73 0 1.46-.122 2.129-.365.667-.243 1.215-.486 1.702-.851l.486 1.033c-.486.487-1.155.912-2.127 1.338-.912.425-1.886.608-2.798.608-1.459 0-2.674-.304-3.647-.973-.972-.67-1.762-1.52-2.25-2.675-.485-1.155-.728-2.432-.728-3.891 0-1.398.303-2.735.85-3.951M148.972 2.951L146.905 2.647 146.905 1.553 151.1 1.006 151.16 1.006 151.708 1.431 151.708 14.38 151.647 15.96 157.787 9.577 155.781 9.212 155.781 7.997 162.225 7.997 162.225 9.212 160.158 9.577 156.206 13.407 161.252 21.188 162.893 21.431 162.893 22.708 156.449 22.708 156.449 21.431 158.152 21.188 154.382 15.048 151.647 17.723 151.708 19.122 151.708 21.188 153.592 21.431 153.592 22.708 147.27 22.708 147.27 21.431 148.972 21.188zM172.56 13.955c.06-.365.06-.73.06-1.155 0-1.155-.243-2.067-.73-2.736-.486-.668-1.216-.972-2.188-.972-1.034 0-1.824.364-2.432 1.094-.608.729-.973 2.006-1.033 3.708-.06.06 6.322.06 6.322.06m-7.599 6.992c-1.094-1.398-1.702-3.283-1.702-5.593 0-1.52.304-2.918.851-4.073.608-1.155 1.398-2.067 2.432-2.675 1.033-.608 2.25-.972 3.586-.972 1.642 0 2.918.425 3.83 1.337.912.912 1.398 2.189 1.46 3.89 0 1.095-.062 1.885-.183 2.493h-9.119c.061 1.763.426 3.16 1.216 4.255.79 1.095 1.884 1.58 3.283 1.58.73 0 1.46-.121 2.188-.364.79-.243 1.338-.547 1.763-.912l.486 1.155c-.486.548-1.276.973-2.31 1.399-1.033.365-2.006.608-3.1.608-1.945-.061-3.526-.73-4.68-2.128M179.733 9.76h-2.492V8.544l2.492-.486V6.842c0-1.094.304-2.128.85-3.04.548-.912 1.338-1.641 2.25-2.188.912-.547 1.885-.79 2.979-.79.608 0 1.094.06 1.58.243V3.74c-.182-.121-.486-.304-.911-.425-.486-.122-.973-.182-1.581-.182-.851 0-1.46.243-1.823.668-.365.426-.548 1.155-.548 2.25v2.067h3.648v1.703h-3.648v11.367l2.918.182v1.277h-7.963V21.37l2.249-.243V9.76zM196.998 13.955c.06-.365.06-.73.06-1.155 0-1.155-.242-2.067-.73-2.736-.485-.668-1.215-.972-2.187-.972-1.034 0-1.824.364-2.432 1.094-.608.729-.973 2.006-1.033 3.708-.061.06 6.322.06 6.322.06m-7.6 6.992c-1.093-1.398-1.701-3.283-1.701-5.593 0-1.52.304-2.918.85-4.073.609-1.155 1.399-2.067 2.433-2.675 1.033-.608 2.249-.972 3.586-.972 1.642 0 2.918.425 3.83 1.337.912.912 1.398 2.189 1.459 3.89 0 1.095-.061 1.885-.182 2.493h-9.12c.062 1.763.427 3.16 1.217 4.255.79 1.095 1.884 1.58 3.283 1.58.729 0 1.459-.121 2.188-.364.79-.243 1.338-.547 1.763-.912l.486 1.155c-.486.548-1.276.973-2.31 1.399-1.033.365-2.006.608-3.1.608-1.945-.061-3.587-.73-4.681-2.128M203.988 2.951L201.799 2.647 201.799 1.553 206.116 1.006 206.724 1.431 206.724 21.188 208.973 21.431 208.973 22.708 201.799 22.708 201.799 21.431 203.988 21.188zM212.682 2.951L210.494 2.647 210.494 1.553 214.81 1.006 215.418 1.431 215.418 21.188 217.667 21.431 217.667 22.708 210.494 22.708 210.494 21.431 212.682 21.188zM228.67 13.955c.06-.365.06-.73.06-1.155 0-1.155-.242-2.067-.73-2.736-.485-.668-1.214-.972-2.187-.972-1.034 0-1.824.364-2.432 1.094-.608.729-.972 2.006-1.033 3.708-.061.06 6.322.06 6.322.06m-7.6 6.992c-1.093-1.398-1.701-3.283-1.701-5.593 0-1.52.304-2.918.85-4.073.609-1.155 1.399-2.067 2.433-2.675 1.033-.608 2.249-.972 3.586-.972 1.642 0 2.918.425 3.83 1.337.912.912 1.398 2.189 1.459 3.89 0 1.095-.061 1.885-.182 2.493h-9.12c.062 1.763.427 3.16 1.217 4.255.79 1.095 1.884 1.58 3.283 1.58.729 0 1.459-.121 2.188-.364.79-.243 1.338-.547 1.763-.912l.486 1.155c-.486.548-1.276.973-2.31 1.399-1.033.365-2.006.608-3.1.608-1.945-.061-3.587-.73-4.681-2.128M233.776 21.432l2.006-.182V10.064l-1.884-.486v-1.46l3.647-.485h.061l.608.486v.486l-.06 2.067h.06c.182-.304.486-.67.972-1.155.487-.486 1.034-.912 1.763-1.337.73-.426 1.52-.608 2.371-.608.365 0 .67.06.851.12v2.98c-.12-.061-.304-.182-.608-.243-.243-.061-.607-.122-.91-.122-1.46 0-2.859.426-4.074 1.338v9.544l3.343.182v1.277h-8.085l-.06-1.216zM107.391 48.423c1.763 0 3.1-.365 3.891-1.094.79-.73 1.215-1.763 1.215-3.161 0-1.338-.364-2.371-1.033-2.98-.729-.607-1.824-.911-3.404-.911-1.824 0-2.918 0-3.405.06v7.904c.365.12 1.277.182 2.736.182zm-1.277-9.727h1.46c1.215 0 2.188-.364 2.796-1.033.608-.67.972-1.641.972-2.918 0-1.216-.304-2.128-.972-2.736-.608-.547-1.702-.851-3.283-.851-.608 0-1.277.06-1.945.122l-.547.06v7.356h1.52zm-4.316-7.051l-2.188-.304v-1.338h3.586c.608 0 1.338-.06 2.31-.121.852-.061 1.46-.122 1.885-.122 2.432 0 4.195.365 5.228 1.155 1.034.73 1.581 1.885 1.581 3.344 0 1.276-.365 2.31-1.095 3.222-.729.91-1.702 1.459-2.978 1.702 1.702-.061 3.04.365 4.012 1.215.973.852 1.46 1.946 1.46 3.405 0 1.763-.609 3.223-1.886 4.377-1.276 1.155-3.343 1.702-6.26 1.702-.609 0-1.217 0-1.825-.061-1.398-.06-2.188-.06-2.492-.06H99.61v-1.276l2.188-.244V31.645zM117.665 48.362l2.006-.182V36.994l-1.884-.486v-1.46l3.647-.486h.06l.609.486v.487l-.061 2.067h.06c.183-.304.487-.669.973-1.155.487-.487 1.034-.912 1.763-1.338.73-.425 1.52-.608 2.37-.608.366 0 .67.061.852.122v2.98c-.121-.062-.304-.183-.608-.245-.304-.06-.607-.12-.911-.12-1.46 0-2.797.424-4.073 1.336v9.545l3.343.182v1.277h-8.085c-.061.122-.061-1.216-.061-1.216M139.307 46.964c.669-1.034.973-2.493.973-4.499 0-1.945-.304-3.526-.912-4.68-.608-1.156-1.581-1.703-2.918-1.703-1.216 0-2.19.486-2.797 1.52-.668 1.033-.972 2.492-.972 4.5 0 1.944.304 3.524.912 4.68.608 1.154 1.58 1.702 2.918 1.702 1.215 0 2.127-.548 2.796-1.52m-8.693-8.815c.669-1.155 1.52-2.067 2.614-2.675 1.094-.608 2.188-.912 3.404-.912 2.249 0 3.89.73 5.046 2.128 1.094 1.398 1.702 3.283 1.702 5.593 0 1.58-.304 2.978-.973 4.134-.668 1.155-1.52 2.067-2.614 2.675-1.094.608-2.188.912-3.404.912-2.25 0-3.891-.73-5.046-2.128-1.094-1.399-1.702-3.283-1.702-5.593 0-1.58.304-2.979.973-4.134M147.878 49.274c-.486-.486-.73-1.216-.73-2.37V36.69h-1.884v-1.216c.06 0 .365-.06.729-.182.426-.122.669-.183.852-.304.303-.183.486-.486.668-.973.122-.364.304-.85.487-1.64.182-.73.304-1.156.364-1.338h1.58l.062 3.83h4.437v1.763h-4.437v8.145c0 1.034 0 1.702.12 2.128.062.426.184.67.427.79.182.122.547.183 1.033.183.487 0 .973-.06 1.58-.183.548-.12 1.034-.243 1.338-.425l.426 1.216c-.426.304-1.094.608-2.067.912-.973.304-1.824.425-2.614.425-1.094.121-1.885-.12-2.371-.547M157.666 29.882l-2.25-.304v-1.094l4.316-.486h.061l.608.425v6.14l-.121 2.249c.547-.486 1.337-.973 2.31-1.46.972-.485 2.005-.667 2.978-.667 1.094 0 2.006.182 2.614.608.609.425 1.034 1.094 1.278 1.945.242.85.363 2.067.363 3.526v7.417l1.885.242V49.7h-6.322v-1.277l1.703-.242v-7.478c0-1.033-.061-1.885-.184-2.432-.12-.608-.424-1.033-.79-1.337-.365-.304-.972-.425-1.763-.425-.608 0-1.337.182-2.066.486-.73.304-1.338.668-1.885 1.094v10.03l1.823.244v1.276h-6.2v-1.276l1.58-.182c.061 0 .061-18.3.061-18.3M182.833 40.885c.061-.365.061-.73.061-1.155 0-1.156-.243-2.067-.73-2.736-.486-.668-1.216-.972-2.188-.972-1.034 0-1.824.364-2.432 1.094-.608.73-.973 2.006-1.033 3.708-.061.061 6.322.061 6.322.061m-7.599 6.991c-1.094-1.399-1.702-3.283-1.702-5.593 0-1.52.304-2.918.851-4.073.608-1.155 1.398-2.067 2.432-2.675 1.033-.608 2.249-.973 3.586-.973 1.642 0 2.918.426 3.83 1.338.912.912 1.398 2.188 1.459 3.89 0 1.095-.061 1.885-.182 2.493h-9.119c.061 1.763.426 3.161 1.216 4.256.79 1.094 1.884 1.58 3.283 1.58.729 0 1.459-.122 2.188-.365.79-.243 1.338-.547 1.763-.912l.486 1.155c-.486.547-1.276.973-2.31 1.4-1.033.363-2.006.607-3.1.607-1.945-.06-3.587-.73-4.681-2.128M187.94 48.362l2.006-.182V36.994l-1.885-.486v-1.46l3.647-.486h.061l.608.486v.487l-.06 2.067h.06c.183-.304.486-.669.972-1.155.488-.487 1.035-.912 1.764-1.338.73-.425 1.52-.608 2.37-.608.365 0 .67.061.851.122v2.98c-.12-.062-.304-.183-.608-.245-.303-.06-.607-.12-.91-.12-1.46 0-2.858.424-4.073 1.336v9.545l3.343.182v1.277H188l-.06-1.216zM202.347 47.572c.182.243.547.486 1.155.73.547.182 1.155.303 1.824.303 1.033 0 1.763-.182 2.25-.608.485-.364.73-.912.73-1.64 0-.488-.184-.913-.427-1.217-.304-.365-.729-.669-1.277-.912-.547-.303-1.337-.607-2.31-.973-1.337-.486-2.37-1.154-2.978-1.823-.608-.73-.912-1.642-.912-2.796 0-.79.243-1.46.73-2.068.486-.608 1.093-1.033 1.945-1.337.851-.304 1.762-.486 2.735-.486.79 0 1.52.061 2.128.182.608.122 1.094.243 1.46.365.364.122.607.182.728.243v3.283h-1.64l-.548-1.946c-.122-.182-.365-.364-.85-.546-.488-.122-.974-.244-1.52-.244-.79 0-1.46.182-1.946.548-.487.364-.73.85-.73 1.458 0 .548.122.973.365 1.338.243.364.608.608.973.851.364.182.911.486 1.58.73l.547.182c.973.364 1.824.73 2.432 1.094.608.365 1.155.79 1.52 1.398.425.547.608 1.276.608 2.128 0 1.276-.487 2.371-1.52 3.1-1.034.791-2.432 1.155-4.195 1.155-.85 0-1.763-.122-2.735-.364-.912-.244-1.703-.487-2.31-.73v-3.465h1.702l.486 2.067zM221.861 31.645L219.612 31.28 219.612 30.004 233.776 30.004 234.08 34.502 232.317 34.502 231.527 31.523 224.718 31.341 224.718 39.062 229.521 39.001 229.946 36.751 231.405 36.751 231.405 42.952 230.007 42.952 229.521 40.642 224.718 40.582 224.718 48.119 228.852 48.363 228.852 49.7 219.794 49.7 219.794 48.363 221.861 48.119zM246.907 49.639c-.243-.182-.365-.486-.365-.972v-.912c-.608.608-1.337 1.094-2.188 1.519-.85.427-1.763.669-2.614.669-1.642 0-2.797-.426-3.526-1.338-.669-.911-1.034-2.37-1.034-4.376v-7.66l-1.459-.426v-1.154l3.71-.365.485.304v9.118c0 1.034.061 1.824.243 2.37.122.549.426.974.79 1.278.365.304.912.425 1.642.425.73 0 1.337-.121 2.006-.425.608-.304 1.155-.67 1.641-1.033V36.569l-1.884-.426v-1.154l4.012-.365.608.304V48.3h1.58v1.216c-.486.122-.91.244-1.276.304-.365.06-.79.122-1.277.122-.486 0-.85-.122-1.094-.304M254.142 36.994l-1.885-.486V35.05l3.77-.487h.059l.548.487v1.702c.608-.547 1.459-1.095 2.492-1.52 1.034-.486 2.068-.669 2.98-.669 1.094 0 1.945.183 2.614.608.608.427 1.032 1.095 1.276 1.946.243.85.365 2.066.365 3.525v7.417l1.824.182v1.338h-6.263v-1.277l1.643-.182v-7.417c0-1.033-.062-1.884-.183-2.432-.121-.608-.426-1.033-.79-1.337-.365-.304-.973-.425-1.702-.425-.608 0-1.338.182-2.067.486-.73.304-1.398.668-1.946 1.094V48.12l1.824.243v1.277H252.5v-1.277l1.642-.243V36.994zM278.762 47.633c.608-.304 1.033-.668 1.337-1.094v-9.727c-.121-.182-.485-.425-.972-.547-.547-.182-1.094-.243-1.641-.243-1.4 0-2.493.547-3.283 1.58-.791 1.034-1.215 2.675-1.215 4.864 0 1.884.364 3.343 1.093 4.255.73.912 1.64 1.398 2.796 1.398.609-.06 1.278-.182 1.885-.486m-5.958 1.52c-.911-.548-1.58-1.338-2.127-2.432-.547-1.094-.791-2.432-.791-4.073 0-1.52.304-2.857.912-4.134.609-1.216 1.52-2.188 2.675-2.918 1.155-.73 2.493-1.094 4.073-1.094.912 0 1.702.122 2.493.304V29.82l-2.674-.304v-1.155l4.74-.486h.06l.609.425v19.94h1.52v1.216c-.547.12-1.033.243-1.46.304-.425.06-.85.12-1.336.12-.487 0-.791-.06-.973-.242-.182-.182-.304-.486-.304-1.034v-.85c-.485.608-1.155 1.094-1.945 1.519-.79.426-1.642.608-2.614.608-.973.06-1.946-.182-2.858-.73" transform="translate(-81 -3974) translate(0 3868) translate(81 106)"/>
                    </g>
                </g>
            </g>
        </g>
    </g>
</svg>
