<?xml version="1.0" encoding="UTF-8"?>
<svg width="16px" height="17px" viewBox="0 0 16 17" version="1.1" xmlns="http://www.w3.org/2000/svg" xmlns:xlink="http://www.w3.org/1999/xlink">
    <title>magnifying_glass</title>
    <g id="magnifying_glass" stroke="none" stroke-width="1" fill="none" fill-rule="evenodd">
        <path d="M14.7140054,6.87783167 C14.7140054,3.94447565 12.3292174,1.55983585 9.39600959,1.55983585 C6.46265357,1.55983585 4.07786551,3.94447565 4.07786551,6.87783167 C4.07786551,9.81118769 6.46265357,12.1959757 9.39600959,12.1959757 C12.3292174,12.1959757 14.7140054,9.81118769 14.7140054,6.87783167 M1.07734698,15.3503898 L5.23667829,11.0258951 C4.17586644,9.96226628 3.51802966,8.4956624 3.51802966,6.87783167 C3.51802966,3.63668454 6.1547142,1 9.39600959,1 C12.6371567,1 15.273693,3.63668454 15.273693,6.87783167 C15.273693,10.1191271 12.6371567,12.7556633 9.39600959,12.7556633 C7.97403246,12.7556633 6.66695807,12.2462364 5.65092123,11.4038139 L1.48328728,15.7394283 C1.42724439,15.7953229 1.35444793,15.8261614 1.28165148,15.8261614 C1.211672,15.8261614 1.14184078,15.8009569 1.08861486,15.7478792 C0.973860372,15.6386104 0.971043401,15.4623274 1.07734698,15.3503898" id="Fill-1" stroke="#007377" fill="#007377"></path>
    </g>
</svg>